[
  {
    "id": 0,
    "Color": "red",
    "Img": "img-desktop",
    "Action": "scrollDown",
    "Title": "Site Responsivo DESKTOP",
    "Text": "Lorem ipsum dolor sit amet, consectetur adipiscing elit, sed do eiusmod tempor incididunt ut labore et dolore magna aliqua. Ut enim ad minim veniam, quis nostrud exercitation ullamco laboris nisi ut aliquip ex ea commodo consequat. Duis aute irure dolor in reprehenderit in voluptate velit esse cillum dolore eu fugiat nulla pariatur. Excepteur sint occaecat cupidatat non proident, sunt in culpa qui officia deserunt mollit anim id est laborum.",
    "Description": "Quando pressionado o botão Leia mais... o restante da informação deverá aparecer em scroll down.",
    "TextButton": "Leia mais..."
  },
  {
    "id": 1,
    "Color": "yellow",
    "Img": "img-tablets",
    "Action": "showModal",
    "Title": "Site Responsivo TABLET",
    "Description": "Quando pressionado o botão Leia mais... informação deverá aparecer completa em um popup na tela.",
    "Text": "Lorem ipsum dolor sit amet, consectetur adipiscing elit, sed do eiusmod tempor incididunt ut labore et dolore magna aliqua. Ut enim ad minim veniam, quis nostrud exercitation ullamco laboris nisi ut aliquip ex ea commodo consequat. Duis aute irure dolor in reprehenderit in voluptate velit esse cillum dolore eu fugiat nulla pariatur. Excepteur sint occaecat cupidatat non proident, sunt in culpa qui officia deserunt mollit anim id est laborum.",
    "TextButton": "Leia mais..."
  },
  {
    "id": 2,
    "Color": "purple",
    "Img": "img-mobile",
    "Action": "changeTheme",
    "Title": "Site Responsivo MOBILE",
    "Description": "Quando pressionado o botão alterar tema modifique o tema do site para blackfriday a seu gosto.",
    "TextButton": "alterar tema"
  }
]